<?xml version="1.0" encoding="utf-8"?>
<!-- Generated by IcoMoon.io -->
<!DOCTYPE svg PUBLIC "-//W3C//DTD SVG 1.1//EN" "http://www.w3.org/Graphics/SVG/1.1/DTD/svg11.dtd">
<svg version="1.1" xmlns="http://www.w3.org/2000/svg" xmlns:xlink="http://www.w3.org/1999/xlink" width="512" height="512" viewBox="0 0 512 512">
<g>
</g>
	<path d="M380.467 154.358c0 68.229-55.49 123.75-123.73 123.75-68.219 0-123.73-55.522-123.73-123.75 0-68.229 55.501-123.719 123.73-123.719 68.24 0 123.73 55.49 123.73 123.719zM256.738 11.54c-78.745 0-142.817 64.061-142.817 142.807 0 78.766 64.072 142.848 142.817 142.848 78.745 0 142.817-64.072 142.817-142.848 0.010-78.736-64.061-142.807-142.817-142.807z" fill="#000000" />
	<path d="M247.071 18.309h19.088v269.342h-19.088v-269.342z" fill="#000000" />
	<path d="M359.434 69.386c-1.68 0.932-41.523 23.388-51.599 69.653-7.608 34.846 3.717 73.063 33.68 113.531l15.339-11.356c-26.522-35.84-36.741-68.864-30.361-98.109 8.253-37.898 41.831-56.811 42.158-56.996l-9.216-16.722z" fill="#000000" />
	<path d="M147.425 81.193h-0.010c0.358 0.225 36.117 24.064 42.547 65.557 4.679 30.147-6.922 62.577-34.478 96.399l14.807 12.053c31.181-38.298 44.144-75.847 38.502-111.626-7.885-49.961-49.224-77.261-50.985-78.387l-10.383 16.005z" fill="#000000" />
	<path d="M124.027 153.928h76.595v19.088h-76.595v-19.088z" fill="#000000" />
	<path d="M314.89 152.77h73.154v19.088h-73.154v-19.088z" fill="#000000" />
	<path d="M112.425 313.159h284.303v17.019h-284.303v-17.019z" fill="#000000" />
	<path d="M274.428 497.558l-73.611-173.276 8.784-3.731 73.611 173.276-8.784 3.731z" fill="#000000" />
	<path d="M218.954 500.468l-66.029-173.939 8.923-3.387 66.029 173.939-8.923 3.387z" fill="#000000" />
	<path d="M325.175 495.916l-68.237-169.314 8.861-3.572 68.236 169.313-8.861 3.572z" fill="#000000" />
	<path d="M274.539 493.517l85.414-168.469 8.521 4.32-85.415 168.469-8.521-4.32z" fill="#000000" />
	<path d="M217.611 491.952l86.201-166.953 8.49 4.384-86.201 166.953-8.489-4.384z" fill="#000000" />
	<path d="M168.417 488.792l91.664-167.945 8.377 4.572-91.663 167.945-8.377-4.572z" fill="#000000" />
</svg>
